<svg viewBox="0 0 24 24" width="24" height="24" xmlns="http://www.w3.org/2000/svg" fill="currentColor">
    <path d="m22.009 2c.4 0 .7.2.9.6.2.3.1.7-.1 1l-7.8 9.2v8.2c0 .4-.2.7-.5.9-.1.1-.3.1-.5.1s-.3 0-.4-.1l-3.99998-2c-.4-.2-.6-.5-.6-.9v-6.2l-7.8-9.2c-.2-.3-.300003-.7-.1-1 .2-.4.5-.6.9-.6zm-9 10.5c0-.3.1-.5.2-.7l6.7-7.8h-15.69998l6.59998 7.9c.1.1.2.4.2.6v5.9l2 1z"/>
</svg>
