<svg width="24" height="24" viewBox="0 0 24 24" xmlns="http://www.w3.org/2000/svg" fill="currentColor">
    <path
        d="M11.744 4.99951C12.913 4.99951 13.863 5.94951 13.863 7.11851C13.863 8.28651 12.913 9.23751 11.744 9.23751C10.576 9.23751 9.625 8.28651 9.625 7.11851C9.625 5.94951 10.576 4.99951 11.744 4.99951ZM11.744 12.2355C14.567 12.2355 16.862 9.94051 16.862 7.11851C16.862 4.29551 14.567 1.99951 11.744 1.99951C8.921 1.99951 6.625 4.29551 6.625 7.11851C6.625 9.94051 8.921 12.2355 11.744 12.2355Z"/>
    <path
        d="M13.8155 16.4113C14.8575 16.1743 15.8625 15.7623 16.7875 15.1813C17.4885 14.7393 17.6995 13.8123 17.2575 13.1123C16.8165 12.4113 15.8915 12.1993 15.1895 12.6403C13.0925 13.9603 10.3935 13.9593 8.29745 12.6403C7.59645 12.1993 6.67045 12.4113 6.23045 13.1123C5.78945 13.8133 6.00045 14.7393 6.70045 15.1813C7.62645 15.7623 8.63045 16.1743 9.67245 16.4113L6.81045 19.2733C6.22545 19.8583 6.22545 20.8083 6.81145 21.3933C7.10445 21.6863 7.48845 21.8333 7.87145 21.8333C8.25546 21.8333 8.63945 21.6863 8.93245 21.3933L11.7435 18.5823L14.5565 21.3933C15.1415 21.9793 16.0905 21.9793 16.6765 21.3933C17.2625 20.8083 17.2625 19.8583 16.6765 19.2733L13.8155 16.4113Z"/>
</svg>
