{
	"block": {
		"heading": "Главная ценность компании - это наша команда!",
		"content": {
			"text": "<p>Lorem ipsum dolor sit amet, consectetur adipiscing elit, sed do eiusmod tempor incididunt ut labore et dolore magna aliqua.Lorem</p>"
		}
	}
}
