<svg width="64" height="64" viewBox="0 0 64 64" fill="none" xmlns="http://www.w3.org/2000/svg">
<path d="M45.3913 52.8175C41.0087 57.2001 34.9217 60.0001 28.2261 60.0001C14.8348 60.0001 4 49.0436 4 35.6523C4 22.261 14.8348 11.3044 28.2261 11.3044" stroke="#F28610" stroke-width="2" stroke-miterlimit="10" stroke-linecap="round" stroke-linejoin="round"/>
<path d="M60 35.6522C60 44.4174 56.4696 52.3304 50.7478 58.0522L28.3478 35.6522V4C45.8783 4 60 18.1217 60 35.6522Z" stroke="#F28610" stroke-width="2" stroke-miterlimit="10" stroke-linecap="round" stroke-linejoin="round"/>
<path d="M4 35.6521H28.2261" stroke="#F28610" stroke-width="2" stroke-miterlimit="10" stroke-linecap="round" stroke-linejoin="round"/>
<path d="M60 35.6522C60 44.4174 56.4696 52.3304 50.7478 58.0522L28.3478 35.6522V4C45.8783 4 60 18.1217 60 35.6522Z" stroke="#242C32" stroke-width="2" stroke-miterlimit="10" stroke-linecap="round" stroke-linejoin="round"/>
</svg>
