<svg width="64" height="64" viewBox="0 0 64 64" fill="none" xmlns="http://www.w3.org/2000/svg">
<path d="M17.9282 12.0511V17.9124H12.1841L5.03339 10.7616L10.8947 5.01758L17.9282 12.0511Z" stroke="#F28610" stroke-width="2" stroke-miterlimit="10" stroke-linecap="round" stroke-linejoin="round"/>
<path d="M28.4789 28.4627L17.9286 17.9124" stroke="#F28610" stroke-width="2" stroke-miterlimit="10" stroke-linecap="round" stroke-linejoin="round"/>
<path d="M42.546 35.4961L37.8569 33.1516L33.1679 37.8406L35.5124 42.5297L51.924 58.9412L58.9575 51.9077L42.546 35.4961Z" stroke="#F28610" stroke-width="2" stroke-miterlimit="10" stroke-linecap="round" stroke-linejoin="round"/>
<path d="M58.4887 12.8716L52.6274 18.6156L48.9934 14.9816L45.3594 11.3476L51.2207 5.60358C47.5867 4.43132 43.2493 5.13467 40.3187 7.94809C37.388 10.8787 37.1536 14.3955 39.0292 17.9123L17.9286 39.0129C14.2946 37.1373 10.8951 37.3717 7.84719 40.4196C4.91655 43.233 4.44765 47.5703 5.6199 51.2043L11.4812 45.4603L15.1152 49.0943L18.7492 52.7283L12.8879 58.4723C16.5219 59.6446 20.8592 59.2929 23.6726 56.4795C26.6033 53.5489 26.7205 49.7976 24.8449 46.1636L45.9455 25.063C48.9934 26.7042 52.8618 27.0559 55.7925 24.1252C58.8403 21.0774 59.6609 16.5056 58.4887 12.8716Z" stroke="#242C32" stroke-width="2" stroke-miterlimit="10" stroke-linecap="round" stroke-linejoin="round"/>
</svg>
