{
	"hero": {
		"breadcrumb": [
			{
				"href": "./hr-main.html",
				"text": "Главная"
			},
			{
				"current": true,
				"text": "Обучение и развитие"
			}
		],
		"overlay": "true",
		"bg": {
			"src": "tmp/hero/hero-learning.jpg",
			"srcset": [
				{
					"scale": "2",
					"src": "tmp/hero/hero-learning@2x.jpg"
				}
			],
			"alt": "",
			"lazy": true
		},
		"heading": "Обучение и развитие",
		"text": "Lorem ipsum dolor sit amet, consectetuer adipiscing elit. Aenean commodo ligula eget dolor. Aenean massa."
	},
	"description": {
		"heading": "Построй карьеру вместе с нами",
		"content": {
			"text": "<p>В Корпоративном университете компании каждый сотрудник может получить знания для выхода на новый виток карьеры.</p>"
		}
	},
	"factor_list": {
		"items": [
			{
				"color": "primary",
				"heading": "145",
				"text": "человек  в программе кадрового резерва в 2019 г."
			},
			{
				"color": "primary",
				"suffix": "%",
				"heading": "18,5",
				"text": "сотрудников в 2019 г. в программах повышения квалификации"
			},
			{
				"color": "primary",
				"suffix": "%",
				"heading": "2,5",
				"text": "молодых специалистов от общего числа сотрудников в 2019 г."
			},
			{
				"color": "primary",
				"heading": "321",
				"text": "студент прошел стажировку на заводах в 2019 г."
			}
		]
	},
	"quote_block": {
		"items": [
			{
				"icon": {
					"name": "64/quote",
					"size": "large"
				},
				"text": "Сегодня компания уверенно смотрит в будущее и приглашает вас стать частью своего многотысячного коллектива. Мы открыты для инициативных сотрудников, желающих развиваться вместе с холдингом и получать полномочия для решения ответственных задач...",
				"more_text": {
					"text": "Сегодня компания уверенно смотрит в будущее и приглашает вас стать частью своего многотысячного коллектива. Мы открыты для инициативных сотрудников, желающих развиваться вместе с холдингом и получать полномочия для решения ответственных задач компания уверенно смотрит в будущее и приглашает вас стать частью своего многотысячного коллектива. Мы открыты для инициативных сотрудников, желающих развиваться вместе с холдингом и получать полномочия для решения ответственных задач",
					"link": {
						"before": "Подробнее",
						"after": "Скрыть"
					}
				},
				"image": {
					"src": "tmp/quote-block/1.jpg",
					"alt": "",
					"disable_lazy": true
				},
				"link": {
					"href": "javascript:void(0);",
					"text": "Подробнее"
				},
				"bottom": {
					"text": "Светлана Павленко",
					"desc": "Директор по персоналу"
				}
			},
			{
				"icon": {
					"name": "64/quote",
					"size": "large"
				},
				"text": "Сегодня компания уверенно смотрит в будущее и приглашает вас стать частью своего многотысячного коллектива. Мы открыты для инициативных сотрудников, желающих развиваться вместе с холдингом и получать полномочия для решения ответственных задач...",
				"more_text": {
					"text": "Сегодня компания уверенно смотрит в будущее и приглашает вас стать частью своего многотысячного коллектива. Мы открыты для инициативных сотрудников, желающих развиваться вместе с холдингом и получать полномочия для решения ответственных задач компания уверенно смотрит в будущее и приглашает вас стать частью своего многотысячного коллектива. Мы открыты для инициативных сотрудников, желающих развиваться вместе с холдингом и получать полномочия для решения ответственных задач",
					"link": {
						"before": "Подробнее",
						"after": "Скрыть"
					}
				},
				"image": {
					"src": "tmp/quote-block/1.jpg",
					"alt": "",
					"disable_lazy": true
				},
				"link": {
					"href": "javascript:void(0);",
					"text": "Подробнее"
				},
				"bottom": {
					"text": "Светлана Павленко",
					"desc": "Директор по персоналу"
				}
			}
		]
	},
	"diagram_bar_layout": {
		"items": [
			{
				"heading": "Возраст сотрудников",
				"columns": true,
				"data": [
					{
						"label": "до 35 лет",
						"value": "24",
						"text": "24%",
						"color": "#242C32"
					},
					{
						"label": "от 35 до 45 лет",
						"value": "32",
						"text": "32%",
						"color": "#E3350F"
					},
					{
						"label": "от 45 до 60 лет",
						"value": "40",
						"text": "40%",
						"color": "#F28610"
					},
					{
						"label": "от 60 лет",
						"value": "4",
						"text": "4%",
						"color": "#F7B670"
					}
				]
			},
			{
				"heading": "Образование сотрудников",
				"columns": true,
				"data": [
					{
						"label": "Среднее",
						"value": "37",
						"text": "37%",
						"color": "#242C32"
					},
					{
						"label": "Среднеспециальное",
						"value": "33",
						"text": "33%",
						"color": "#E3350F"
					},
					{
						"label": "Высшее",
						"value": "30",
						"text": "30%",
						"color": "#F28610"
					}
				]
			}
		]
	},
	"accordion": {
		"heading": "Часто задаваемые вопросы",
		"items": [
			{
				"active": false,
				"heading": "Программа «ЕВРОЛИДЕР»",
				"text": "<p>Lorem ipsum dolor sit amet, consectetur adipisicing elit. Architecto distinctio est ipsum iste mollitia neque perferendis porro qui vel voluptates. Blanditiis cupiditate dolore ducimus harum incidunt ipsum magni neque nesciunt nulla numquam odit, praesentium quaerat repudiandae, tenetur, voluptatibus. Aliquam dicta exercitationem id nemo nisi nulla quas saepe sit ut voluptatibus!</p>"
			},
			{
				"active": false,
				"heading": "Есть ли доставка в выходные и в праздники?",
				"text": "<p>Важным критерием карьерного успеха наших сотрудников мы считаем их желание постоянно повышать уровень личных знаний и профессиональных компетенций. Отвечая на эту потребность, компания «ЕВРОЦЕМЕНТ групп предлагает представителям основных профессиональных направлений холдинга принять участие в Программах повышения квалификации.</p><p>Занятия проводятся при участии опытных экспертов и тренеров и состоят из модулей, включающих получение новой отраслевой информации, изучение актуальных бизнес- кейсов, а также освоение новых трендов в области личностного и профессионального развития.</p><img src=\"tmp/accordion-inner-image.jpg\" alt=\"123\">"
			},
			{
				"active": false,
				"heading": "Дистанционное обучение",
				"text": "<p>Важным критерием карьерного успеха наших сотрудников мы считаем их желание постоянно повышать уровень личных знаний и профессиональных компетенций. Отвечая на эту потребность, компания «ЕВРОЦЕМЕНТ групп предлагает представителям основных профессиональных направлений холдинга принять участие в Программах повышения квалификации.</p><p>Занятия проводятся при участии опытных экспертов и тренеров и состоят из модулей, включающих получение новой отраслевой информации, изучение актуальных бизнес- кейсов, а также освоение новых трендов в области личностного и профессионального развития.</p><img src=\"tmp/accordion-inner-image.jpg\" alt=\"123\"><p>lorem ipsum</p>"
			}
		]
	},
	"action_banner": {
		"title": "Готов стать частью нашей команды?",
		"text": "Найди подходящую вакансию для себя",
		"button": {
			"theme": "border-white",
			"hover": "white",
			"text": "Смотреть вакансии",
			"href": "#!"
		},
		"image": {
			"src": "tmp/banner.jpg",
			"alt": "",
			"lazy": true
		},
		"overlay": true
	},
	"button_group": {
		"items": [
			{
				"href": "!#",
				"label": "Условия",
				"heading": "Забота о сотрудниках"
			},
			{
				"href": "!#",
				"label": "СТАБИЛЬНОСТЬ",
				"heading": "Карьерные возможности"
			},
			{
				"href": "!#",
				"label": "FAQ",
				"heading": "Задать вопрос"
			}
		]
	}
}
