{
	"hero": {
		"breadcrumb": [
			{
				"href": "./hr-main.html",
				"text": "Главная"
			},
			{
				"current": true,
				"text": "Кадровый резерв"
			}
		],
		"bg_color": "grey",
		"overlay": true,
		"heading": "Кадровый резерв"
	},
	"program": {
		"main": {
			"heading": "Кадровый резерв",
			"lead": "Программа обеспечивает повышение уровня квалификации сотрудников, а также их карьерный рост",
			"text": "Каждый сотрудник компании “ЕВРОЦЕМЕНТ груп” может принять участие в программе кадрового резерва, целью которой является развитие эффективной системы подготовки профессионалов для первоочередного назначения на резервируемые вакантные должности внутри холдинга.",
			"image": {
				"src": "tmp/section-complex/section-complex-1.jpg",
				"alt": "alternative text"
			}
		},
		"slider": {
			"heading": "Как проходит участие в&nbsp;программе кадрового резерва",
			"items": [
				{
					"number": "01",
					"heading": "Важна активность",
					"text": "Сотрудник с потенциалом карьерного роста попадает в программу, благодаря самовыдвижению или рекомендации своего непосредственного руководителя"
				},
				{
					"number": "02",
					"heading": "Поиск путей роста",
					"text": "Компания проводит оценку компетенций участника программы кадрового резерва и определяет потенциально доступные для него должности"
				},
				{
					"number": "03",
					"heading": "Обучение и развитие",
					"text": "Сотрудник проходит целевое развитие. Компания разрабатывает или корректирует его план развития, дает знания и проводит мониторинг роста в профессии"
				},
				{
					"number": "04",
					"heading": "Разговор с профессионалом",
					"text": "Когда резервируемая должность освобождается, сотрудник получает приглашение на первичное собеседование с потенциальным руководителем"
				},
				{
					"number": "05",
					"heading": "К новым вершинам",
					"text": "По итогам успешного собеседования с будущим руководителем сотрудник получает назначение на вакантную должность, совершая новый карьерный шаг"
				}
			]
		}
	},
	"slider_cards": {
		"heading": "Истории успеха",
		"card_name": "^card-story",
		"cards": [
			{
				"href": "#",
				"image": {
					"src": "tmp/card-story/card-story-1.jpg",
					"alt": "image alt"
				},
				"heading": "Ольга Черкашина",
				"text": "Главный маркшейдер",
				"note": "ЗАО «Осколцемент»"
			},
			{
				"href": "#",
				"image": {
					"src": "tmp/card-story/card-story-2.jpg",
					"alt": "image alt"
				},
				"heading": "Юлия Сусева",
				"text": "Специалист по планированию ремонтов",
				"note": "АО «Мордовцемент»"
			},
			{
				"href": "#",
				"image": {
					"src": "tmp/card-story/card-story-3.jpg",
					"alt": "image alt"
				},
				"heading": "Евгений Панов",
				"text": "Главный энергетик",
				"note": "АО «Липецкцемент»"
			},
			{
				"href": "#",
				"image": {
					"src": "img/img-placeholder-gray.jpg",
					"alt": "image alt"
				},
				"heading": "Ольга Черкашина",
				"text": "Главный маркшейдер",
				"note": "ЗАО «Осколцемент»"
			},
			{
				"href": "#",
				"image": {
					"src": "tmp/card-story/card-story-4.jpg",
					"alt": "image alt"
				},
				"heading": "Ольга Черкашина",
				"text": "Главный маркшейдер",
				"note": "ЗАО «Осколцемент»"
			}
		],
		"buttons": [
			{
				"theme": "border-dark",
				"hover": "white",
				"href": "#",
				"text": "Все истории"
			}
		]
	},
	"action_banner": {
		"title": "Готов стать частью нашей команды?",
		"text": "Сделай первый шаг на пути к работе мечты. Отправь свое резюме и мы свяжемся с тобой.",
		"button": {
			"theme": "border-white",
			"hover": "white",
			"text": "Отправить резюме",
			"href": "#!"
		},
		"image": {
			"src": "tmp/banner.jpg",
			"alt": "Изображения для детальной страницы вакансии",
			"lazy": true
		},
		"overlay": true
	},
	"button_group": {
		"items": [
			{
				"href": "",
				"label": "Карьерные возможности",
				"heading": "121 вакансия"
			},
			{
				"href": "",
				"label": "Обучение и развитие",
				"heading": "Корпоративная культура"
			},
			{
				"href": "",
				"label": "FAQ",
				"heading": "Задать вопрос"
			}
		]
	}
}
