{
	"action_banner": {
		"title": "Не нашли подходящей вакансии?",
		"text": "Напишите несколько слов о себе и о том, какая вакансия вам интересна",
		"button": {
			"theme": "border-white",
			"hover": "white",
			"text": "Отправить резюме",
			"href": "#!"
		},
		"image": {
			"src": "tmp/banner.jpg",
			"alt": "Изображения для детальной страницы вакансии",
			"lazy": true
		},
		"overlay": true
	}
}
