{
	"banner": {
		"title": "Ответственныйи бизнес",
		"text": "Мы следуем единым принципам устойчивого развития, реализуя проекты и мероприятия в сфере корпоративной социальной ответственности, поддержке местных сообществ и благотворительности.",
		"image": {
			"src": "tmp/banner/1.jpg",
			"alt": "",
			"lazy": true
		},
		"button": {
			"theme": "border-white",
			"hover": "white",
			"text": "Устойчивое развитие",
			"href": "#!"
		},
		"right": false,
		"overlay": true
	}
}
